<?xml version="1.0" encoding="UTF-8"?>
<glyph name="three" format="1">
  <advance width="600"/>
  <unicode hex="0033"/>
  <outline>
    <contour>
      <point x="550" y="550" type="curve"/>
      <point x="550" y="560" type="line"/>
      <point x="550" y="650"/>
      <point x="480" y="710"/>
      <point x="300" y="710" type="curve" smooth="yes"/>
      <point x="110" y="710"/>
      <point x="50" y="660"/>
      <point x="50" y="570" type="curve"/>
      <point x="50" y="550" type="line"/>
      <point x="150" y="550" type="line"/>
      <point x="150" y="570" type="line"/>
      <point x="150" y="610"/>
      <point x="170" y="610"/>
      <point x="300" y="610" type="curve" smooth="yes"/>
      <point x="430" y="610"/>
      <point x="450" y="600"/>
      <point x="450" y="560" type="curve" smooth="yes"/>
      <point x="450" y="550" type="line" smooth="yes"/>
      <point x="450" y="510"/>
      <point x="430" y="500"/>
      <point x="300" y="500" type="curve"/>
      <point x="300" y="410" type="line"/>
      <point x="480" y="410"/>
      <point x="550" y="460"/>
    </contour>
    <contour>
      <point x="550" y="350" type="line"/>
      <point x="550" y="440"/>
      <point x="480" y="500"/>
      <point x="300" y="500" type="curve"/>
      <point x="250" y="500" type="line"/>
      <point x="250" y="410" type="line"/>
      <point x="300" y="410" type="line"/>
      <point x="430" y="410"/>
      <point x="450" y="400"/>
      <point x="450" y="360" type="curve"/>
      <point x="450" y="240" type="line" smooth="yes"/>
      <point x="450" y="120"/>
      <point x="430" y="100"/>
      <point x="300" y="100" type="curve"/>
      <point x="300" y="0" type="line"/>
      <point x="330" y="0" type="line" smooth="yes"/>
      <point x="470" y="0"/>
      <point x="550" y="70"/>
      <point x="550" y="220" type="curve"/>
    </contour>
    <contour>
      <point x="270" y="0" type="curve" smooth="yes"/>
      <point x="300" y="0" type="line"/>
      <point x="300" y="100" type="line"/>
      <point x="180" y="100"/>
      <point x="150" y="120"/>
      <point x="150" y="240" type="curve" smooth="yes"/>
      <point x="150" y="250" type="line"/>
      <point x="50" y="250" type="line"/>
      <point x="50" y="220" type="line"/>
      <point x="50" y="70"/>
      <point x="130" y="0"/>
    </contour>
  </outline>
  <lib>
    <dict>
      <key>com.typemytype.robofont.layerData</key>
      <dict>
        <key>background</key>
        <dict>
          <key>anchors</key>
          <array>
          </array>
          <key>components</key>
          <array>
          </array>
          <key>contours</key>
          <array>
            <dict>
              <key>points</key>
              <array>
                <dict>
                  <key>segmentType</key>
                  <string>curve</string>
                  <key>smooth</key>
                  <false/>
                  <key>x</key>
                  <integer>350</integer>
                  <key>y</key>
                  <integer>550</integer>
                </dict>
                <dict>
                  <key>segmentType</key>
                  <string>line</string>
                  <key>smooth</key>
                  <false/>
                  <key>x</key>
                  <integer>350</integer>
                  <key>y</key>
                  <integer>560</integer>
                </dict>
                <dict>
                  <key>smooth</key>
                  <false/>
                  <key>x</key>
                  <integer>350</integer>
                  <key>y</key>
                  <integer>650</integer>
                </dict>
                <dict>
                  <key>smooth</key>
                  <false/>
                  <key>x</key>
                  <integer>280</integer>
                  <key>y</key>
                  <integer>710</integer>
                </dict>
                <dict>
                  <key>segmentType</key>
                  <string>curve</string>
                  <key>smooth</key>
                  <true/>
                  <key>x</key>
                  <integer>200</integer>
                  <key>y</key>
                  <integer>710</integer>
                </dict>
                <dict>
                  <key>smooth</key>
                  <false/>
                  <key>x</key>
                  <integer>110</integer>
                  <key>y</key>
                  <integer>710</integer>
                </dict>
                <dict>
                  <key>smooth</key>
                  <false/>
                  <key>x</key>
                  <integer>50</integer>
                  <key>y</key>
                  <integer>660</integer>
                </dict>
                <dict>
                  <key>segmentType</key>
                  <string>curve</string>
                  <key>smooth</key>
                  <false/>
                  <key>x</key>
                  <integer>50</integer>
                  <key>y</key>
                  <integer>570</integer>
                </dict>
                <dict>
                  <key>segmentType</key>
                  <string>line</string>
                  <key>smooth</key>
                  <false/>
                  <key>x</key>
                  <integer>50</integer>
                  <key>y</key>
                  <integer>550</integer>
                </dict>
                <dict>
                  <key>segmentType</key>
                  <string>line</string>
                  <key>smooth</key>
                  <false/>
                  <key>x</key>
                  <integer>150</integer>
                  <key>y</key>
                  <integer>550</integer>
                </dict>
                <dict>
                  <key>segmentType</key>
                  <string>line</string>
                  <key>smooth</key>
                  <false/>
                  <key>x</key>
                  <integer>150</integer>
                  <key>y</key>
                  <integer>570</integer>
                </dict>
                <dict>
                  <key>smooth</key>
                  <false/>
                  <key>x</key>
                  <integer>150</integer>
                  <key>y</key>
                  <integer>610</integer>
                </dict>
                <dict>
                  <key>smooth</key>
                  <false/>
                  <key>x</key>
                  <integer>170</integer>
                  <key>y</key>
                  <integer>610</integer>
                </dict>
                <dict>
                  <key>segmentType</key>
                  <string>curve</string>
                  <key>smooth</key>
                  <true/>
                  <key>x</key>
                  <integer>200</integer>
                  <key>y</key>
                  <integer>610</integer>
                </dict>
                <dict>
                  <key>smooth</key>
                  <false/>
                  <key>x</key>
                  <integer>230</integer>
                  <key>y</key>
                  <integer>610</integer>
                </dict>
                <dict>
                  <key>smooth</key>
                  <false/>
                  <key>x</key>
                  <integer>250</integer>
                  <key>y</key>
                  <integer>600</integer>
                </dict>
                <dict>
                  <key>segmentType</key>
                  <string>curve</string>
                  <key>smooth</key>
                  <true/>
                  <key>x</key>
                  <integer>250</integer>
                  <key>y</key>
                  <integer>560</integer>
                </dict>
                <dict>
                  <key>segmentType</key>
                  <string>line</string>
                  <key>smooth</key>
                  <true/>
                  <key>x</key>
                  <integer>250</integer>
                  <key>y</key>
                  <integer>550</integer>
                </dict>
                <dict>
                  <key>smooth</key>
                  <false/>
                  <key>x</key>
                  <integer>250</integer>
                  <key>y</key>
                  <integer>510</integer>
                </dict>
                <dict>
                  <key>smooth</key>
                  <false/>
                  <key>x</key>
                  <integer>230</integer>
                  <key>y</key>
                  <integer>500</integer>
                </dict>
                <dict>
                  <key>segmentType</key>
                  <string>curve</string>
                  <key>smooth</key>
                  <false/>
                  <key>x</key>
                  <integer>200</integer>
                  <key>y</key>
                  <integer>500</integer>
                </dict>
                <dict>
                  <key>segmentType</key>
                  <string>line</string>
                  <key>smooth</key>
                  <false/>
                  <key>x</key>
                  <integer>150</integer>
                  <key>y</key>
                  <integer>500</integer>
                </dict>
                <dict>
                  <key>segmentType</key>
                  <string>line</string>
                  <key>smooth</key>
                  <false/>
                  <key>x</key>
                  <integer>150</integer>
                  <key>y</key>
                  <integer>400</integer>
                </dict>
                <dict>
                  <key>segmentType</key>
                  <string>line</string>
                  <key>smooth</key>
                  <false/>
                  <key>x</key>
                  <integer>200</integer>
                  <key>y</key>
                  <integer>400</integer>
                </dict>
                <dict>
                  <key>smooth</key>
                  <false/>
                  <key>x</key>
                  <integer>280</integer>
                  <key>y</key>
                  <integer>400</integer>
                </dict>
                <dict>
                  <key>smooth</key>
                  <false/>
                  <key>x</key>
                  <integer>350</integer>
                  <key>y</key>
                  <integer>460</integer>
                </dict>
              </array>
            </dict>
            <dict>
              <key>points</key>
              <array>
                <dict>
                  <key>segmentType</key>
                  <string>curve</string>
                  <key>smooth</key>
                  <true/>
                  <key>x</key>
                  <integer>200</integer>
                  <key>y</key>
                  <integer>-10</integer>
                </dict>
                <dict>
                  <key>smooth</key>
                  <false/>
                  <key>x</key>
                  <integer>280</integer>
                  <key>y</key>
                  <integer>-10</integer>
                </dict>
                <dict>
                  <key>smooth</key>
                  <false/>
                  <key>x</key>
                  <integer>350</integer>
                  <key>y</key>
                  <integer>50</integer>
                </dict>
                <dict>
                  <key>segmentType</key>
                  <string>curve</string>
                  <key>smooth</key>
                  <false/>
                  <key>x</key>
                  <integer>350</integer>
                  <key>y</key>
                  <integer>140</integer>
                </dict>
                <dict>
                  <key>segmentType</key>
                  <string>line</string>
                  <key>smooth</key>
                  <false/>
                  <key>x</key>
                  <integer>350</integer>
                  <key>y</key>
                  <integer>350</integer>
                </dict>
                <dict>
                  <key>smooth</key>
                  <false/>
                  <key>x</key>
                  <integer>350</integer>
                  <key>y</key>
                  <integer>440</integer>
                </dict>
                <dict>
                  <key>smooth</key>
                  <false/>
                  <key>x</key>
                  <integer>280</integer>
                  <key>y</key>
                  <integer>500</integer>
                </dict>
                <dict>
                  <key>segmentType</key>
                  <string>curve</string>
                  <key>smooth</key>
                  <false/>
                  <key>x</key>
                  <integer>200</integer>
                  <key>y</key>
                  <integer>500</integer>
                </dict>
                <dict>
                  <key>segmentType</key>
                  <string>line</string>
                  <key>smooth</key>
                  <false/>
                  <key>x</key>
                  <integer>50</integer>
                  <key>y</key>
                  <integer>500</integer>
                </dict>
                <dict>
                  <key>segmentType</key>
                  <string>line</string>
                  <key>smooth</key>
                  <false/>
                  <key>x</key>
                  <integer>50</integer>
                  <key>y</key>
                  <integer>400</integer>
                </dict>
                <dict>
                  <key>segmentType</key>
                  <string>line</string>
                  <key>smooth</key>
                  <false/>
                  <key>x</key>
                  <integer>200</integer>
                  <key>y</key>
                  <integer>400</integer>
                </dict>
                <dict>
                  <key>smooth</key>
                  <false/>
                  <key>x</key>
                  <integer>230</integer>
                  <key>y</key>
                  <integer>400</integer>
                </dict>
                <dict>
                  <key>smooth</key>
                  <false/>
                  <key>x</key>
                  <integer>250</integer>
                  <key>y</key>
                  <integer>390</integer>
                </dict>
                <dict>
                  <key>segmentType</key>
                  <string>curve</string>
                  <key>smooth</key>
                  <true/>
                  <key>x</key>
                  <integer>250</integer>
                  <key>y</key>
                  <integer>350</integer>
                </dict>
                <dict>
                  <key>segmentType</key>
                  <string>line</string>
                  <key>smooth</key>
                  <true/>
                  <key>x</key>
                  <integer>250</integer>
                  <key>y</key>
                  <integer>140</integer>
                </dict>
                <dict>
                  <key>smooth</key>
                  <false/>
                  <key>x</key>
                  <integer>250</integer>
                  <key>y</key>
                  <integer>100</integer>
                </dict>
                <dict>
                  <key>smooth</key>
                  <false/>
                  <key>x</key>
                  <integer>230</integer>
                  <key>y</key>
                  <integer>90</integer>
                </dict>
                <dict>
                  <key>segmentType</key>
                  <string>curve</string>
                  <key>smooth</key>
                  <true/>
                  <key>x</key>
                  <integer>200</integer>
                  <key>y</key>
                  <integer>90</integer>
                </dict>
                <dict>
                  <key>smooth</key>
                  <false/>
                  <key>x</key>
                  <integer>170</integer>
                  <key>y</key>
                  <integer>90</integer>
                </dict>
                <dict>
                  <key>smooth</key>
                  <false/>
                  <key>x</key>
                  <integer>150</integer>
                  <key>y</key>
                  <integer>90</integer>
                </dict>
                <dict>
                  <key>segmentType</key>
                  <string>curve</string>
                  <key>smooth</key>
                  <false/>
                  <key>x</key>
                  <integer>150</integer>
                  <key>y</key>
                  <integer>130</integer>
                </dict>
                <dict>
                  <key>segmentType</key>
                  <string>line</string>
                  <key>smooth</key>
                  <false/>
                  <key>x</key>
                  <integer>150</integer>
                  <key>y</key>
                  <integer>250</integer>
                </dict>
                <dict>
                  <key>segmentType</key>
                  <string>line</string>
                  <key>smooth</key>
                  <false/>
                  <key>x</key>
                  <integer>50</integer>
                  <key>y</key>
                  <integer>250</integer>
                </dict>
                <dict>
                  <key>segmentType</key>
                  <string>line</string>
                  <key>smooth</key>
                  <false/>
                  <key>x</key>
                  <integer>50</integer>
                  <key>y</key>
                  <integer>130</integer>
                </dict>
                <dict>
                  <key>smooth</key>
                  <false/>
                  <key>x</key>
                  <integer>50</integer>
                  <key>y</key>
                  <integer>40</integer>
                </dict>
                <dict>
                  <key>smooth</key>
                  <false/>
                  <key>x</key>
                  <integer>110</integer>
                  <key>y</key>
                  <integer>-10</integer>
                </dict>
              </array>
            </dict>
          </array>
          <key>lib</key>
          <dict>
          </dict>
          <key>name</key>
          <string>three</string>
          <key>unicodes</key>
          <array>
          </array>
          <key>width</key>
          <integer>600</integer>
        </dict>
      </dict>
    </dict>
  </lib>
</glyph>
