<?xml version="1.0" encoding="UTF-8"?>
<glyph name="d.superior" format="1">
  <advance width="400"/>
  <outline>
    <contour>
      <point x="350" y="400" type="line"/>
      <point x="350" y="800" type="line"/>
      <point x="260" y="800" type="line"/>
      <point x="260" y="745" type="line" smooth="yes"/>
      <point x="260" y="700"/>
      <point x="265" y="670"/>
      <point x="270" y="640" type="curve"/>
      <point x="260" y="640" type="line"/>
      <point x="260" y="460" type="line"/>
      <point x="270" y="460" type="line"/>
      <point x="285" y="400" type="line"/>
    </contour>
    <contour>
      <point x="50" y="560" type="curve" smooth="yes"/>
      <point x="50" y="540" type="line"/>
      <point x="50" y="440"/>
      <point x="80" y="390"/>
      <point x="160" y="390" type="curve"/>
      <point x="215" y="390"/>
      <point x="250" y="420"/>
      <point x="260" y="460" type="curve"/>
      <point x="260" y="535" type="line"/>
      <point x="260" y="495"/>
      <point x="240" y="480"/>
      <point x="200" y="480" type="curve" smooth="yes"/>
      <point x="160" y="480"/>
      <point x="140" y="495"/>
      <point x="140" y="535" type="curve" smooth="yes"/>
      <point x="140" y="565" type="line"/>
      <point x="140" y="605"/>
      <point x="160" y="620"/>
      <point x="200" y="620" type="curve" smooth="yes"/>
      <point x="240" y="620"/>
      <point x="260" y="605"/>
      <point x="260" y="565" type="curve"/>
      <point x="260" y="640" type="line"/>
      <point x="250" y="680"/>
      <point x="215" y="710"/>
      <point x="160" y="710" type="curve"/>
      <point x="80" y="710"/>
      <point x="50" y="660"/>
    </contour>
  </outline>
  <lib>
    <dict>
      <key>com.typemytype.robofont.layerData</key>
      <dict>
        <key>background</key>
        <dict>
          <key>anchors</key>
          <array>
          </array>
          <key>components</key>
          <array>
          </array>
          <key>contours</key>
          <array>
            <dict>
              <key>points</key>
              <array>
                <dict>
                  <key>segmentType</key>
                  <string>line</string>
                  <key>smooth</key>
                  <false/>
                  <key>x</key>
                  <integer>50</integer>
                  <key>y</key>
                  <integer>0</integer>
                </dict>
                <dict>
                  <key>segmentType</key>
                  <string>line</string>
                  <key>smooth</key>
                  <false/>
                  <key>x</key>
                  <integer>150</integer>
                  <key>y</key>
                  <integer>0</integer>
                </dict>
                <dict>
                  <key>segmentType</key>
                  <string>line</string>
                  <key>smooth</key>
                  <false/>
                  <key>x</key>
                  <integer>150</integer>
                  <key>y</key>
                  <integer>440</integer>
                </dict>
                <dict>
                  <key>segmentType</key>
                  <string>line</string>
                  <key>smooth</key>
                  <false/>
                  <key>x</key>
                  <integer>140</integer>
                  <key>y</key>
                  <integer>500</integer>
                </dict>
                <dict>
                  <key>segmentType</key>
                  <string>line</string>
                  <key>smooth</key>
                  <false/>
                  <key>x</key>
                  <integer>50</integer>
                  <key>y</key>
                  <integer>500</integer>
                </dict>
              </array>
            </dict>
            <dict>
              <key>points</key>
              <array>
                <dict>
                  <key>segmentType</key>
                  <string>curve</string>
                  <key>smooth</key>
                  <false/>
                  <key>x</key>
                  <integer>150</integer>
                  <key>y</key>
                  <integer>440</integer>
                </dict>
                <dict>
                  <key>segmentType</key>
                  <string>line</string>
                  <key>smooth</key>
                  <false/>
                  <key>x</key>
                  <integer>150</integer>
                  <key>y</key>
                  <integer>360</integer>
                </dict>
                <dict>
                  <key>smooth</key>
                  <false/>
                  <key>x</key>
                  <integer>150</integer>
                  <key>y</key>
                  <integer>400</integer>
                </dict>
                <dict>
                  <key>smooth</key>
                  <false/>
                  <key>x</key>
                  <integer>170</integer>
                  <key>y</key>
                  <integer>410</integer>
                </dict>
                <dict>
                  <key>segmentType</key>
                  <string>curve</string>
                  <key>smooth</key>
                  <true/>
                  <key>x</key>
                  <integer>200</integer>
                  <key>y</key>
                  <integer>410</integer>
                </dict>
                <dict>
                  <key>smooth</key>
                  <false/>
                  <key>x</key>
                  <integer>230</integer>
                  <key>y</key>
                  <integer>410</integer>
                </dict>
                <dict>
                  <key>smooth</key>
                  <false/>
                  <key>x</key>
                  <integer>250</integer>
                  <key>y</key>
                  <integer>400</integer>
                </dict>
                <dict>
                  <key>segmentType</key>
                  <string>curve</string>
                  <key>smooth</key>
                  <true/>
                  <key>x</key>
                  <integer>250</integer>
                  <key>y</key>
                  <integer>360</integer>
                </dict>
                <dict>
                  <key>segmentType</key>
                  <string>line</string>
                  <key>smooth</key>
                  <false/>
                  <key>x</key>
                  <integer>250</integer>
                  <key>y</key>
                  <integer>0</integer>
                </dict>
                <dict>
                  <key>segmentType</key>
                  <string>line</string>
                  <key>smooth</key>
                  <false/>
                  <key>x</key>
                  <integer>350</integer>
                  <key>y</key>
                  <integer>0</integer>
                </dict>
                <dict>
                  <key>segmentType</key>
                  <string>line</string>
                  <key>smooth</key>
                  <true/>
                  <key>x</key>
                  <integer>350</integer>
                  <key>y</key>
                  <integer>360</integer>
                </dict>
                <dict>
                  <key>smooth</key>
                  <false/>
                  <key>x</key>
                  <integer>350</integer>
                  <key>y</key>
                  <integer>460</integer>
                </dict>
                <dict>
                  <key>smooth</key>
                  <false/>
                  <key>x</key>
                  <integer>320</integer>
                  <key>y</key>
                  <integer>510</integer>
                </dict>
                <dict>
                  <key>segmentType</key>
                  <string>curve</string>
                  <key>smooth</key>
                  <false/>
                  <key>x</key>
                  <integer>240</integer>
                  <key>y</key>
                  <integer>510</integer>
                </dict>
                <dict>
                  <key>smooth</key>
                  <false/>
                  <key>x</key>
                  <integer>190</integer>
                  <key>y</key>
                  <integer>510</integer>
                </dict>
                <dict>
                  <key>smooth</key>
                  <false/>
                  <key>x</key>
                  <integer>160</integer>
                  <key>y</key>
                  <integer>480</integer>
                </dict>
              </array>
            </dict>
            <dict>
              <key>points</key>
              <array>
                <dict>
                  <key>segmentType</key>
                  <string>line</string>
                  <key>smooth</key>
                  <false/>
                  <key>x</key>
                  <integer>50</integer>
                  <key>y</key>
                  <integer>700</integer>
                </dict>
                <dict>
                  <key>segmentType</key>
                  <string>line</string>
                  <key>smooth</key>
                  <false/>
                  <key>x</key>
                  <integer>50</integer>
                  <key>y</key>
                  <integer>400</integer>
                </dict>
                <dict>
                  <key>segmentType</key>
                  <string>line</string>
                  <key>smooth</key>
                  <false/>
                  <key>x</key>
                  <integer>115</integer>
                  <key>y</key>
                  <integer>400</integer>
                </dict>
                <dict>
                  <key>segmentType</key>
                  <string>line</string>
                  <key>smooth</key>
                  <false/>
                  <key>x</key>
                  <integer>130</integer>
                  <key>y</key>
                  <integer>460</integer>
                </dict>
                <dict>
                  <key>segmentType</key>
                  <string>line</string>
                  <key>smooth</key>
                  <false/>
                  <key>x</key>
                  <integer>140</integer>
                  <key>y</key>
                  <integer>460</integer>
                </dict>
                <dict>
                  <key>segmentType</key>
                  <string>line</string>
                  <key>smooth</key>
                  <false/>
                  <key>x</key>
                  <integer>140</integer>
                  <key>y</key>
                  <integer>700</integer>
                </dict>
              </array>
            </dict>
          </array>
          <key>lib</key>
          <dict>
          </dict>
          <key>name</key>
          <string>d.superior</string>
          <key>unicodes</key>
          <array>
          </array>
          <key>width</key>
          <integer>400</integer>
        </dict>
      </dict>
    </dict>
  </lib>
</glyph>
