<?xml version="1.0" encoding="UTF-8"?>
<glyph name="uniFB48" format="1">
  <advance width="504"/>
  <unicode hex="FB48"/>
  <outline>
    <contour>
      <point x="198" y="444" type="line" smooth="yes"/>
      <point x="168" y="444"/>
      <point x="146" y="444"/>
      <point x="124" y="447" type="curve" smooth="yes" name="inserted"/>
      <point x="102" y="449"/>
      <point x="82" y="454"/>
      <point x="56" y="465" type="curve"/>
      <point x="64" y="489"/>
      <point x="72" y="512"/>
      <point x="81" y="538" type="curve"/>
      <point x="109" y="529"/>
      <point x="129" y="525"/>
      <point x="149" y="522" type="curve" smooth="yes" name="inserted"/>
      <point x="170" y="520"/>
      <point x="190" y="520"/>
      <point x="221" y="520" type="curve" smooth="yes"/>
      <point x="268" y="520" type="line" smooth="yes"/>
      <point x="310" y="520"/>
      <point x="352" y="512"/>
      <point x="385" y="486" type="curve" smooth="yes"/>
      <point x="417" y="460"/>
      <point x="440" y="416"/>
      <point x="440" y="343" type="curve" smooth="yes"/>
      <point x="440" y="0" type="line"/>
      <point x="353" y="0" type="line"/>
      <point x="353" y="334" type="line" smooth="yes"/>
      <point x="353" y="375"/>
      <point x="348" y="403"/>
      <point x="333" y="420" type="curve" smooth="yes" name="inserted"/>
      <point x="317" y="437"/>
      <point x="292" y="444"/>
      <point x="252" y="444" type="curve" smooth="yes"/>
    </contour>
    <contour>
      <point x="204" y="307" type="curve" smooth="yes"/>
      <point x="230" y="307"/>
      <point x="250" y="287"/>
      <point x="250" y="262" type="curve" smooth="yes"/>
      <point x="250" y="249"/>
      <point x="245" y="238"/>
      <point x="236" y="229" type="curve" smooth="yes" name="inserted"/>
      <point x="228" y="221"/>
      <point x="217" y="216"/>
      <point x="204" y="216" type="curve" smooth="yes"/>
      <point x="191" y="216"/>
      <point x="180" y="221"/>
      <point x="172" y="229" type="curve" smooth="yes" name="inserted"/>
      <point x="164" y="238"/>
      <point x="159" y="249"/>
      <point x="159" y="262" type="curve" smooth="yes"/>
      <point x="159" y="286"/>
      <point x="179" y="307"/>
    </contour>
  </outline>
</glyph>
