<?xml version="1.0" encoding="UTF-8"?>
<glyph name="Eacute" format="1">
  <advance width="600"/>
  <unicode hex="00C9"/>
  <outline>
    <component base="E"/>
    <component base="acute" xOffset="200" yOffset="100"/>
  </outline>
</glyph>
